HandyCNV Vignette • HandyCNV
…
#> Chromosome 25 has been processed.
#> Chromosome 26 has been processed.
#> Chromosome 27 has been processed.
#> Chromosome 28 has been processed.
#> Chromosome 29 has been processed.
#> 978 CNVRs generated in total.
#> Overall summary of CNVRs:
#> # A tibble: 3 x 6
#>   Type      N `Average Length` `Min Length` `Max Length` `Total Length`
#>   <chr> <int>            <dbl>        <dbl>        <dbl>          <dbl>
#> 1 Gain    347           150153         7947      2639041       52103038
#> 2 Loss    399           100664         3703       737404       40164889
#> 3 Mixed   232           898204         6735      8282577      208383407
#> Summary of CNVRs on each Chromosome:
#> # A tibble: 29 x 3
#>    Chr   `Total Length` `Number of CNVR`
#>    <chr>          <dbl>            <int>
#>  1 1           26386484               62
#>  2 10           6784489               35
#>  3 11          12434667               33
#>  4 12          23045567               34
#>  5 13           4035800               35
#>  6 14          11313259               31
#>  7 15          10540774               32
#>  8 16           9051167               31
#>  9 17          12211360               32
#> 10 18           3455220               35
#> # ... with 19 more rows
…
           ncol_1 = 5)
#> To group by length...
#> The summary of length groups as following: 
#> # A tibble: 5 x 8
#>   Length_group number_ROH    Mean      SD     Min    Max Proportion N_per_animal
#>   <chr>             <int>   <dbl>   <dbl>   <int>  <int>      <dbl>        <dbl>
#> 1 >=16Mb              635  2.22e7 6454382  1.60e7 5.51e7      0.036          1.6
#> 2 1-2Mb              4193  1.58e6  255957  1.00e6 2.00e6      0.239         10.6
#> 3 2-4Mb              6239  2.86e6  574522  2.00e6 4.00e6      0.356         15.7
#> 4 4-8Mb              4297  5.62e6 1139048  4.00e6 8.00e6      0.245         10.8
#> 5 8-16Mb             2151  1.09e7 2202856  8.00e6 1.60e7      0.123          5.4
#> Calculating inbreeding coefficient...
#> by length group...
#> Inbreeding coefficient of Individual as following:
#> # A tibble: 397 x 12
#>    Sample_ID     n total_length  Mean    SD min_length max_length Froh_1Mb
#>    <chr>     <int>        <dbl> <dbl> <dbl>      <dbl>      <dbl>    <dbl>
#>  1 20109456~    56        285.   5.08  4.2        1.19      21.8     0.114
#>  2 20109456~    37        176.   4.77  3.63       1.24      17.4     0.071
#>  3 20109456~    59        258.   4.37  3.46       1.11      14.4     0.104
#>  4 20109456~    35        170.   4.86  3.78       1.06      15.5     0.068
#>  5 20109456~    71        324.   4.56  3.99       1.11      22.2     0.13 
#>  6 20109456~    61        279.   4.58  3.38       1.03      16.0     0.112
#>  7 20109456~    91        573.   6.29  5.44       1.06      26.1     0.23 
#>  8 20109456~    54        376.   6.96  5.83       1.09      32.1     0.151
#>  9 20109456~    19         51.1  2.69  1.88       1.36       9.67    0.021
#> 10 20109456~    61        336.   5.5   5.68       1.19      30.7     0.135
#> # ... with 387 more rows, and 4 more variables: Froh_2Mb <dbl>, Froh_4Mb <dbl>,
#> #   Froh_8Mb <dbl>, Froh_16Mb <dbl>
…
